{
    "name": "LTH Core",
    "slug": "lth-core",
    "author": "<a href='#'>LTH Core</a>",
    "author_profile": "",
    "version": "1.0.1",
    "download_url": "https://gitlab.com/plugins21/lth-core/-/archive/1.0.1/lth-core-1.0.1.zip",
    "requires": "3.0",
    "tested": "5.8",
    "requires_php": "5.3",
    "last_updated": "2023-01-30 02:10:00",
    "sections": {
        "description": "This simple plugin does nothing, only gets updates from a custom server",
        "installation": "Click the activate button and that's it.",
        "changelog": "<h4>1.0 –  1 august 2021</h4><ul><li>Bug fixes.</li><li>Initital release.</li></ul>"
    },
    "banners": {
        "low": "https://raw.githubusercontent.com/LTH-Plugins/lth-core/main/banner-772x250.jpg",
        "high": "https://raw.githubusercontent.com/LTH-Plugins/lth-core/main/banner-1544x500.jpg"
    }
}
